<svg width="32" height="32" viewBox="0 0 32 32" fill="none" xmlns="http://www.w3.org/2000/svg">
    <path d="M24 17.333h-6.667V24c0 .733-.6 1.333-1.333 1.333s-1.333-.6-1.333-1.333v-6.667H8c-.733 0-1.333-.6-1.333-1.333s.6-1.333 1.333-1.333h6.667V8c0-.733.6-1.333 1.333-1.333s1.333.6 1.333 1.333v6.667H24c.733 0 1.333.6 1.333 1.333s-.6 1.333-1.333 1.333z" fill="#000"/>
</svg>
