<svg width="18" height="18" viewBox="0 0 18 18" fill="none" xmlns="http://www.w3.org/2000/svg">
    <path d="M2.25 13.095v2.28c0 .21.165.375.375.375h2.28a.352.352 0 0 0 .263-.113l8.19-8.182-2.813-2.813-8.183 8.183a.368.368 0 0 0-.112.27zM15.533 5.28a.747.747 0 0 0 0-1.058l-1.755-1.755a.747.747 0 0 0-1.058 0L11.347 3.84l2.813 2.813 1.373-1.373z" fill="#000"/>
    <path d="M2.25 13.095v2.28c0 .21.165.375.375.375h2.28a.352.352 0 0 0 .263-.113l8.19-8.182-2.813-2.813-8.183 8.183a.368.368 0 0 0-.112.27z" fill="#000"/>
</svg>
