<svg width="28" height="24" viewBox="0 0 28 24" fill="none" xmlns="http://www.w3.org/2000/svg">
<path d="M25.3336 21.3333H2.66696C1.93363 21.3333 1.33363 21.9333 1.33363 22.6667C1.33363 23.4 1.93363 24 2.66696 24H25.3336C26.067 24 26.667 23.4 26.667 22.6667C26.667 21.9333 26.067 21.3333 25.3336 21.3333ZM27.427 8.85333C27.1336 7.78667 26.0403 7.16 24.9736 7.44L17.8936 9.33333L9.2803 1.30667C8.9203 0.959999 8.4003 0.839999 7.9203 0.973332C7.01363 1.22667 6.58696 2.26667 7.05363 3.08L11.6403 11.0267L5.01363 12.8L2.9203 11.1467C2.58696 10.8933 2.1603 10.8 1.74696 10.9067L1.30696 11.0267C0.880295 11.1333 0.680295 11.6267 0.906962 12L3.41363 16.3333C3.7203 16.8533 4.33363 17.1067 4.90696 16.96L26.0003 11.3067C27.067 11.0133 27.707 9.92 27.427 8.85333Z" fill="black"/>
</svg>
